{
  "pages.footer.menu.schedule": "Schedule",
  "pages.footer.menu.addToFavourite": "Add to fav",
  "pages.footer.menu.deleteToFavourite": "Remove from fav",
  "pages.footer.menu.settings": "Settings",
  "pages.footer.menu.share": "Share",
  "pages.title.menu.routeInformation": "Route Information",
  "pages.title.menu.mashrut": "Mashrut",
  "pages.title.menu.forecast": "Forecast",
  "pages.title.menu.following": "Following",
  "pages.title.menu.current": "Current",
  "pages.title.menu.direction": "Direction",
  "pages.title.menu.min": "min"
}
